{
  "Apps": [
    {
      "AppID": "iPrint",
      "Name": "AppName_iPrint",
      "Description": "AppDescription_iPrint",
      "iOSAppStoreURL": "http://itunes.apple.com/app/id326876192?mt=8",
      "iOSURLScheme": "com.epson.iPrint",
      "iOSIconName": "iPrint.png",
      "GooglePlayURL": "https://play.google.com/store/apps/details?id=epson.print",
      "AndroidPackageName": "epson.print",
      "AndroidClassName": "android.intent.action.MAIN",
      "AndroidIconName": "icon_home",
      "IsRemoteAvailable": true
    }
  ],
  "Functions": [
    {
      "AppID": "iPrint",
      "FunctionID": "iPrint-Photo",
      "Name": "FunctionName_iPrint_Photo",
      "iOSURLScheme": "com.epson.iPrint.Photo",
      "iOSIconName": "iPrint-Photo.png",
      "AndroidPackageName": "epson.print",
      "AndroidClassName": "epson.print.activity.AFolderPhoto",
      "AndroidKey": "",
      "AndroidIconName": "image_photos2",
      "IsRemoteAvailable": true
    },
    {
      "AppID": "iPrint",
      "FunctionID": "iPrint-Document",
      "Name": "FunctionName_iPrint_Document",
      "iOSURLScheme": "com.epson.iPrint.Document",
      "iOSIconName": "iPrint-Document.png",
      "AndroidPackageName": "epson.print",
      "AndroidClassName": "epson.print.fileBrower",
      "AndroidKey": "",
      "AndroidIconName": "image_documents2",
      "IsRemoteAvailable": true
    },
    {
      "AppID": "iPrint",
      "FunctionID": "iPrint-OnlineStorage",
      "Name": "FunctionName_iPrint_OnlineStorage",
      "iOSURLScheme": "com.epson.iPrint.OnlineStorage",
      "iOSIconName": "iPrint-OnlineStorage.png",
      "AndroidPackageName": "epson.print",
      "AndroidClassName": "epson.server.screens.StorageServer",
      "AndroidKey": "",
      "AndroidIconName": "image_onlinestorage2",
      "IsRemoteAvailable": true
    },
    {
      "AppID": "iPrint",
      "FunctionID": "iPrint-Web",
      "Name": "FunctionName_iPrint_Web",
      "iOSURLScheme": "com.epson.iPrint.Web",
      "iOSIconName": "iPrint-Web.png",
      "AndroidPackageName": "epson.print",
      "AndroidClassName": "epson.print.WebviewActivity",
      "AndroidKey": "",
      "AndroidIconName": "image_webpageprint2",
      "IsRemoteAvailable": true
    },
    {
      "AppID": "iPrint",
      "FunctionID": "iPrint-Scan",
      "Name": "FunctionName_iPrint_Scan",
      "iOSURLScheme": "com.epson.iPrint.Scan",
      "iOSIconName": "iPrint-Scan.png",
      "AndroidPackageName": "epson.print",
      "AndroidClassName": "epson.scan.activity.ScanActivity",
      "AndroidKey": "",
      "AndroidIconName": "image_scan2",
      "IsRemoteAvailable": false
    },
    {
      "AppID": "iPrint",
      "FunctionID": "iPrint-CameraCopy",
      "Name": "FunctionName_iPrint_CameraCopy",
      "iOSURLScheme": "com.epson.iPrint.CameraCopy",
      "iOSIconName": "iPrint-CameraCopy.png",
      "AndroidPackageName": "epson.print",
      "AndroidClassName": "com.epson.cameracopy.ui.CameraPreviewActivity",
      "AndroidKey": "",
      "AndroidIconName": "image_camera",
      "IsRemoteAvailable": true
    },
    {
      "AppID": "iPrint",
      "FunctionID": "iPrint-Copy",
      "Name": "FunctionName_iPrint_Copy",
      "iOSURLScheme": "com.epson.iPrint.Copy",
      "iOSIconName": "iPrint-Copy.png",
      "AndroidPackageName": "epson.print",
      "AndroidClassName": "epson.print.copy.CopyActivity",
      "AndroidKey": "",
      "AndroidIconName": "image_copy",
      "IsRemoteAvailable": false
    },
    {
      "AppID": "iPrint",
      "FunctionID": "iPrint-MemoryCard",
      "Name": "FunctionName_iPrint_MemoryCard",
      "iOSURLScheme": "com.epson.iPrint.MemoryCard",
      "iOSIconName": "iPrint-MemoryCard.png",
      "AndroidPackageName": "epson.print",
      "AndroidClassName": "com.epson.memcardacc.MemcardTop",
      "AndroidKey": "",
      "AndroidIconName": "image_readerwriter",
      "IsRemoteAvailable": false
    },
    {
      "AppID": "iPrint",
      "FunctionID": "iPrint-PhotoTransfer",
      "Name": "FunctionName_iPrint_PhotoTransfer",
      "iOSURLScheme": "com.epson.iPrint.PhotoTransfer",
      "iOSIconName": "iPrint-PhotoTransfer.png",
      "AndroidPackageName": "epson.print",
      "AndroidClassName": "com.epson.memcardacc.MemcardPhotocopyTop",
      "AndroidKey": "",
      "AndroidIconName": "image_phototransfer",
      "IsRemoteAvailable": false
    }
  ],
  "Capabilities": [
  ],
  "DefaultCapability": {
    "DeviceIDs": [

    ],
    "IsPrinter": true,
    "IsScanner": true,
    "AppIDs": [
      "iPrint"
    ],
    "FunctionIDs": [
      "iPrint-Photo",
      "iPrint-Document",
      "iPrint-Web",
      "iPrint-OnlineStorage",
      "iPrint-Scan",
      "iPrint-MemoryCard",
      "iPrint-Copy",
      "iPrint-PhotoTransfer",
      "iPrint-CameraCopy"
    ]
  }
}